<?xml version="1.0" encoding="UTF-8" standalone="no"?>
<!-- Created with Inkscape (http://www.inkscape.org/) -->

<svg
   xmlns:dc="http://purl.org/dc/elements/1.1/"
   xmlns:cc="http://creativecommons.org/ns#"
   xmlns:rdf="http://www.w3.org/1999/02/22-rdf-syntax-ns#"
   xmlns:svg="http://www.w3.org/2000/svg"
   xmlns="http://www.w3.org/2000/svg"
   xmlns:xlink="http://www.w3.org/1999/xlink"
   xmlns:sodipodi="http://sodipodi.sourceforge.net/DTD/sodipodi-0.dtd"
   xmlns:inkscape="http://www.inkscape.org/namespaces/inkscape"
   width="64"
   height="64"
   id="svg2"
   version="1.1"
   inkscape:version="0.48.4 r9939"
   sodipodi:docname="DisplacementMaps.svg"
   inkscape:export-filename="C:\Users\Paul\Desktop\Circle.png"
   inkscape:export-xdpi="89.989204"
   inkscape:export-ydpi="89.989204"
   style="enable-background:new">
  <defs
     id="defs4">
    <linearGradient
       inkscape:collect="always"
       id="linearGradient3822">
      <stop
         style="stop-color:#0000ff;stop-opacity:1;"
         offset="0"
         id="stop3824" />
      <stop
         style="stop-color:#0000ff;stop-opacity:0;"
         offset="1"
         id="stop3826" />
    </linearGradient>
    <linearGradient
       inkscape:collect="always"
       id="linearGradient4005">
      <stop
         style="stop-color:#0000ff;stop-opacity:1;"
         offset="0"
         id="stop4007" />
      <stop
         style="stop-color:#0000ff;stop-opacity:0;"
         offset="1"
         id="stop4009" />
    </linearGradient>
    <linearGradient
       id="linearGradient3948">
      <stop
         style="stop-color:#0000ff;stop-opacity:0;"
         offset="0"
         id="stop3950" />
      <stop
         style="stop-color:#0000ff;stop-opacity:1;"
         offset="1"
         id="stop3952" />
    </linearGradient>
    <linearGradient
       id="linearGradient3773">
      <stop
         id="stop3775"
         offset="0"
         style="stop-color:#00ff00;stop-opacity:1;" />
      <stop
         id="stop3777"
         offset="1"
         style="stop-color:#000000;stop-opacity:0;" />
    </linearGradient>
    <linearGradient
       id="linearGradient3763">
      <stop
         style="stop-color:#ff0000;stop-opacity:1;"
         offset="0"
         id="stop3765" />
      <stop
         style="stop-color:#ff0000;stop-opacity:0;"
         offset="1"
         id="stop3767" />
    </linearGradient>
    <linearGradient
       inkscape:collect="always"
       xlink:href="#linearGradient3763"
       id="linearGradient3769"
       x1="-0.26589242"
       y1="1021.0765"
       x2="63.948803"
       y2="1021.0765"
       gradientUnits="userSpaceOnUse"
       gradientTransform="translate(-63.999999,1.48e-5)" />
    <linearGradient
       inkscape:collect="always"
       xlink:href="#linearGradient3773"
       id="linearGradient3779"
       gradientUnits="userSpaceOnUse"
       gradientTransform="translate(-63.999999,-1.1050781e-5)"
       x1="33.57143"
       y1="1052.3264"
       x2="33.82143"
       y2="988.57648" />
    <linearGradient
       inkscape:collect="always"
       xlink:href="#linearGradient3773-2"
       id="linearGradient3779-5"
       gradientUnits="userSpaceOnUse"
       gradientTransform="translate(-63.999999,-1.1050781e-5)"
       x1="33.57143"
       y1="1052.3264"
       x2="33.82143"
       y2="988.57648" />
    <linearGradient
       id="linearGradient3773-2">
      <stop
         id="stop3775-3"
         offset="0"
         style="stop-color:#00ff00;stop-opacity:1;" />
      <stop
         id="stop3777-1"
         offset="1"
         style="stop-color:#000000;stop-opacity:0;" />
    </linearGradient>
    <linearGradient
       y2="988.57648"
       x2="33.82143"
       y1="1052.3264"
       x1="33.57143"
       gradientTransform="translate(-64.000002,-6.2835937e-6)"
       gradientUnits="userSpaceOnUse"
       id="linearGradient3804"
       xlink:href="#linearGradient3773-2"
       inkscape:collect="always" />
    <filter
       inkscape:collect="always"
       id="filter3848"
       color-interpolation-filters="sRGB">
      <feBlend
         inkscape:collect="always"
         mode="screen"
         in2="BackgroundImage"
         id="feBlend3850" />
    </filter>
    <linearGradient
       y2="988.57648"
       x2="33.82143"
       y1="1052.3264"
       x1="33.57143"
       gradientTransform="translate(-64.000002,-6.2835937e-6)"
       gradientUnits="userSpaceOnUse"
       id="linearGradient3804-6"
       xlink:href="#linearGradient3773-2-8"
       inkscape:collect="always" />
    <linearGradient
       id="linearGradient3773-2-8">
      <stop
         id="stop3775-3-8"
         offset="0"
         style="stop-color:#00ff00;stop-opacity:1;" />
      <stop
         id="stop3777-1-2"
         offset="1"
         style="stop-color:#000000;stop-opacity:0;" />
    </linearGradient>
    <linearGradient
       inkscape:collect="always"
       xlink:href="#linearGradient3763-7"
       id="linearGradient3769-7"
       x1="0"
       y1="1020.3622"
       x2="64"
       y2="1020.3622"
       gradientUnits="userSpaceOnUse"
       gradientTransform="translate(-63.999999,1.48e-5)" />
    <linearGradient
       inkscape:collect="always"
       id="linearGradient3763-7">
      <stop
         style="stop-color:#ff0000;stop-opacity:1;"
         offset="0"
         id="stop3765-1" />
      <stop
         style="stop-color:#ff0000;stop-opacity:0;"
         offset="1"
         id="stop3767-2" />
    </linearGradient>
    <linearGradient
       y2="1025.9872"
       x2="74.416664"
       y1="1025.3622"
       x1="-0.20833333"
       gradientTransform="translate(-63.999999,-988.36217)"
       gradientUnits="userSpaceOnUse"
       id="linearGradient3914"
       xlink:href="#linearGradient3773-2-8"
       inkscape:collect="always" />
    <filter
       inkscape:collect="always"
       id="filter3933"
       color-interpolation-filters="sRGB">
      <feBlend
         inkscape:collect="always"
         mode="screen"
         in2="BackgroundImage"
         id="feBlend3935" />
    </filter>
    <filter
       inkscape:collect="always"
       id="filter3937"
       color-interpolation-filters="sRGB">
      <feBlend
         inkscape:collect="always"
         mode="screen"
         in2="BackgroundImage"
         id="feBlend3939" />
    </filter>
    <filter
       inkscape:collect="always"
       id="filter3964"
       color-interpolation-filters="sRGB">
      <feBlend
         inkscape:collect="always"
         mode="screen"
         in2="BackgroundImage"
         id="feBlend3966" />
    </filter>
    <filter
       inkscape:collect="always"
       id="filter3968"
       color-interpolation-filters="sRGB">
      <feGaussianBlur
         inkscape:collect="always"
         stdDeviation="0.58392857"
         id="feGaussianBlur3970" />
    </filter>
    <radialGradient
       inkscape:collect="always"
       xlink:href="#linearGradient3948"
       id="radialGradient3992"
       gradientUnits="userSpaceOnUse"
       gradientTransform="matrix(1.0059987,0,0,1,-0.2640492,0)"
       cx="44.017857"
       cy="15.517857"
       fx="44.017857"
       fy="15.517857"
       r="31.040428" />
    <radialGradient
       inkscape:collect="always"
       xlink:href="#linearGradient4005"
       id="radialGradient4011"
       cx="44.017857"
       cy="15.517857"
       fx="44.017857"
       fy="15.517857"
       r="30.377183"
       gradientUnits="userSpaceOnUse" />
    <radialGradient
       inkscape:collect="always"
       xlink:href="#linearGradient3948"
       id="radialGradient4015"
       gradientUnits="userSpaceOnUse"
       gradientTransform="matrix(1.0059987,0,0,1,-0.2640492,0)"
       cx="44.017857"
       cy="15.517857"
       fx="44.017857"
       fy="15.517857"
       r="31.040428" />
    <filter
       inkscape:collect="always"
       id="filter4102"
       x="-0.47104535"
       width="1.9420907"
       y="-0.47104535"
       height="1.9420907">
      <feGaussianBlur
         inkscape:collect="always"
         stdDeviation="10.269069"
         id="feGaussianBlur4104" />
    </filter>
    <filter
       inkscape:collect="always"
       id="filter4106"
       x="-0.15903465"
       width="1.3180693"
       y="-0.15903465"
       height="1.3180693">
      <feGaussianBlur
         inkscape:collect="always"
         stdDeviation="3.4670501"
         id="feGaussianBlur4108" />
    </filter>
    <filter
       inkscape:collect="always"
       id="filter4110">
      <feGaussianBlur
         inkscape:collect="always"
         stdDeviation="2.0928572"
         id="feGaussianBlur4112" />
    </filter>
    <radialGradient
       inkscape:collect="always"
       xlink:href="#linearGradient3822"
       id="radialGradient3828"
       cx="30.267857"
       cy="27.125"
       fx="30.267857"
       fy="27.125"
       r="26.196428"
       gradientUnits="userSpaceOnUse"
       gradientTransform="matrix(0.92089086,-0.00624933,0.00613443,0.90395945,2.228068,2.7942534)" />
  </defs>
  <sodipodi:namedview
     id="base"
     pagecolor="#ffffff"
     bordercolor="#666666"
     borderopacity="1.0"
     inkscape:pageopacity="0"
     inkscape:pageshadow="2"
     inkscape:zoom="5.6"
     inkscape:cx="-0.74999986"
     inkscape:cy="59.307862"
     inkscape:document-units="px"
     inkscape:current-layer="layer3"
     showgrid="false"
     inkscape:window-width="1680"
     inkscape:window-height="988"
     inkscape:window-x="-8"
     inkscape:window-y="-8"
     inkscape:window-maximized="1"
     width="64px" />
  <metadata
     id="metadata7">
    <rdf:RDF>
      <cc:Work
         rdf:about="">
        <dc:format>image/svg+xml</dc:format>
        <dc:type
           rdf:resource="http://purl.org/dc/dcmitype/StillImage" />
        <dc:title></dc:title>
      </cc:Work>
    </rdf:RDF>
  </metadata>
  <g
     inkscape:groupmode="layer"
     id="layer3"
     inkscape:label="Blue"
     style="display:inline;filter:url(#filter3964)">
    <path
       sodipodi:type="arc"
       style="fill:url(#radialGradient4011);fill-opacity:1;stroke:none;filter:url(#filter3968)"
       id="path3942"
       sodipodi:cx="44.017857"
       sodipodi:cy="15.517857"
       sodipodi:rx="29.196428"
       sodipodi:ry="29.196428"
       d="m 73.214285,15.517857 a 29.196428,29.196428 0 1 1 -58.392857,0 29.196428,29.196428 0 1 1 58.392857,0 z"
       transform="matrix(0.947586,0,0,0.947586,50.289296,-62.704504)" />
    <path
       sodipodi:type="arc"
       style="fill:#0000ff;fill-opacity:0.25098039;stroke:none"
       id="path3988"
       sodipodi:cx="44.017857"
       sodipodi:cy="15.517857"
       sodipodi:rx="29.196428"
       sodipodi:ry="29.196428"
       d="m 73.214285,15.517857 a 29.196428,29.196428 0 1 1 -58.392857,0 29.196428,29.196428 0 1 1 58.392857,0 z"
       transform="matrix(0.92769336,0,0,0.92769336,-8.8350731,-82.39581)" />
    <path
       transform="matrix(0.84253663,0,0,0.84253663,-5.0866561,-81.07436)"
       d="m 73.214285,15.517857 a 29.196428,29.196428 0 1 1 -58.392857,0 29.196428,29.196428 0 1 1 58.392857,0 z"
       sodipodi:ry="29.196428"
       sodipodi:rx="29.196428"
       sodipodi:cy="15.517857"
       sodipodi:cx="44.017857"
       id="path3990"
       style="fill:none;stroke:url(#radialGradient3992);stroke-width:11.86892033;stroke-miterlimit:4;stroke-dasharray:none;filter:url(#filter3968)"
       sodipodi:type="arc" />
    <g
       id="g3047"
       transform="translate(-80,0)">
      <path
         transform="matrix(0.99429293,0,0,0.99429293,-9.1033606,-9.707039)"
         d="m 67.500002,41.94643 c 0,14.448164 -11.712551,26.160715 -26.160715,26.160715 -14.448164,0 -26.160715,-11.712551 -26.160715,-26.160715 0,-14.448164 11.712551,-26.160715 26.160715,-26.160715 14.448164,0 26.160715,11.712551 26.160715,26.160715 z"
         sodipodi:ry="26.160715"
         sodipodi:rx="26.160715"
         sodipodi:cy="41.94643"
         sodipodi:cx="41.339287"
         id="path4036"
         style="fill:none;stroke:#0000ff;stroke-width:4.02295923;stroke-miterlimit:4;stroke-opacity:1;stroke-dasharray:none;filter:url(#filter4110)"
         sodipodi:type="arc" />
      <path
         sodipodi:type="arc"
         style="fill:none;stroke:#0000ff;stroke-width:6.6644783;stroke-miterlimit:4;stroke-opacity:1;stroke-dasharray:none;filter:url(#filter4106)"
         id="path4038"
         sodipodi:cx="41.339287"
         sodipodi:cy="41.94643"
         sodipodi:rx="26.160715"
         sodipodi:ry="26.160715"
         d="m 67.500002,41.94643 c 0,14.448164 -11.712551,26.160715 -26.160715,26.160715 -14.448164,0 -26.160715,-11.712551 -26.160715,-26.160715 0,-14.448164 11.712551,-26.160715 26.160715,-26.160715 14.448164,0 26.160715,11.712551 26.160715,26.160715 z"
         transform="matrix(0.60019702,0,0,0.60019702,7.1882833,6.8238776)" />
      <path
         transform="matrix(0.20263892,0,0,0.20263892,23.623052,23.500021)"
         d="m 67.500002,41.94643 c 0,14.448164 -11.712551,26.160715 -26.160715,26.160715 -14.448164,0 -26.160715,-11.712551 -26.160715,-26.160715 0,-14.448164 11.712551,-26.160715 26.160715,-26.160715 14.448164,0 26.160715,11.712551 26.160715,26.160715 z"
         sodipodi:ry="26.160715"
         sodipodi:rx="26.160715"
         sodipodi:cy="41.94643"
         sodipodi:cx="41.339287"
         id="path4076"
         style="fill:none;stroke:#0000ff;stroke-width:19.73954391;stroke-miterlimit:4;stroke-opacity:1;stroke-dasharray:none;filter:url(#filter4102)"
         sodipodi:type="arc" />
    </g>
    <path
       sodipodi:type="arc"
       style="fill:url(#radialGradient3828);fill-opacity:1;stroke:none"
       id="path3052"
       sodipodi:cx="30.267857"
       sodipodi:cy="27.125"
       sodipodi:rx="24.196428"
       sodipodi:ry="24.196428"
       d="m 54.464285,27.125 a 24.196428,24.196428 0 1 1 -48.3928567,0 24.196428,24.196428 0 1 1 48.3928567,0 z"
       transform="matrix(1.2066421,0,0,1.2066421,-4.5224691,-0.73016611)" />
  </g>
  <g
     inkscape:groupmode="layer"
     id="layer2"
     inkscape:label="Green"
     style="display:none;filter:url(#filter3933)"
     sodipodi:insensitive="true">
    <rect
       style="fill:url(#linearGradient3914);fill-opacity:1;stroke:none;display:inline;filter:url(#filter3848)"
       id="rect2985-6"
       width="74.666664"
       height="74.666664"
       x="-64"
       y="0"
       transform="matrix(0,-0.85714286,-0.85714286,0,64.128569,9.3714285)" />
  </g>
  <g
     inkscape:label="Red"
     inkscape:groupmode="layer"
     id="layer1"
     transform="translate(0,-988.36218)"
     style="display:none;filter:url(#filter3937)"
     sodipodi:insensitive="true">
    <rect
       style="fill:url(#linearGradient3769);fill-opacity:1;stroke:none"
       id="rect2985"
       width="64"
       height="64"
       x="-64"
       y="988.36218"
       transform="scale(-1,1)" />
  </g>
</svg>
