<?xml version="1.0" encoding="UTF-8" standalone="no"?>
<!-- Created with Inkscape (http://www.inkscape.org/) -->

<svg
   xmlns:dc="http://purl.org/dc/elements/1.1/"
   xmlns:cc="http://creativecommons.org/ns#"
   xmlns:rdf="http://www.w3.org/1999/02/22-rdf-syntax-ns#"
   xmlns:svg="http://www.w3.org/2000/svg"
   xmlns="http://www.w3.org/2000/svg"
   xmlns:sodipodi="http://sodipodi.sourceforge.net/DTD/sodipodi-0.dtd"
   xmlns:inkscape="http://www.inkscape.org/namespaces/inkscape"
   width="256"
   height="256"
   id="svg2"
   version="1.1"
   inkscape:version="0.48.4 r9939"
   sodipodi:docname="Hud.svg"
   inkscape:export-filename="C:\Users\Paul\Source\Pumpkin Games\Games\Paladin\Resources\Sprites\Game\Images\ShipHud.png"
   inkscape:export-xdpi="89.989204"
   inkscape:export-ydpi="89.989204">
  <defs
     id="defs4" />
  <sodipodi:namedview
     id="base"
     pagecolor="#000000"
     bordercolor="#666666"
     borderopacity="1.0"
     inkscape:pageopacity="1"
     inkscape:pageshadow="2"
     inkscape:zoom="1.979899"
     inkscape:cx="26.805882"
     inkscape:cy="104.78837"
     inkscape:document-units="px"
     inkscape:current-layer="layer1"
     showgrid="false"
     inkscape:window-width="1445"
     inkscape:window-height="897"
     inkscape:window-x="38"
     inkscape:window-y="44"
     inkscape:window-maximized="0" />
  <metadata
     id="metadata7">
    <rdf:RDF>
      <cc:Work
         rdf:about="">
        <dc:format>image/svg+xml</dc:format>
        <dc:type
           rdf:resource="http://purl.org/dc/dcmitype/StillImage" />
        <dc:title></dc:title>
      </cc:Work>
    </rdf:RDF>
  </metadata>
  <g
     inkscape:label="Layer 1"
     inkscape:groupmode="layer"
     id="layer1"
     transform="translate(0,-796.36218)">
    <path
       style="fill:#ffffff;fill-opacity:1;stroke:none"
       d="m 32,1110.3622 -30,0 30,30 -30,30 30,0 30,-30 z"
       id="rect2985"
       inkscape:connector-curvature="0"
       sodipodi:nodetypes="ccccccc" />
    <text
       sodipodi:linespacing="125%"
       id="text5004"
       y="1097.4912"
       x="3.9819288"
       style="font-size:20px;font-style:normal;font-variant:normal;font-weight:normal;font-stretch:normal;line-height:125%;letter-spacing:0px;word-spacing:0px;fill:#ff6600;fill-opacity:1;stroke:none;font-family:Bebas Neue;-inkscape-font-specification:Bebas Neue"
       xml:space="preserve"><tspan
         y="1097.4912"
         x="3.9819288"
         id="tspan5006"
         sodipodi:role="line">CHEVRON</tspan></text>
    <text
       xml:space="preserve"
       style="font-size:13px;font-style:normal;font-variant:normal;font-weight:normal;font-stretch:normal;line-height:125%;letter-spacing:0px;word-spacing:0px;fill:#cccccc;fill-opacity:1;stroke:none;font-family:Bebas Neue;-inkscape-font-specification:Bebas Neue"
       x="18.75334"
       y="1079.4913"
       id="text3126"
       sodipodi:linespacing="125%"><tspan
         sodipodi:role="line"
         id="tspan3128"
         x="18.75334"
         y="1079.4913">64x64</tspan></text>
    <path
       sodipodi:type="arc"
       style="fill:none;stroke:#ffffff;stroke-width:1;stroke-linecap:round;stroke-linejoin:round;stroke-miterlimit:4;stroke-opacity:1;stroke-dasharray:none;stroke-dashoffset:0"
       id="path3010"
       sodipodi:cx="83.842659"
       sodipodi:cy="84.058365"
       sodipodi:rx="60.609154"
       sodipodi:ry="60.609154"
       d="m 144.45181,84.058365 a 60.609154,60.609154 0 1 1 -121.218305,0 60.609154,60.609154 0 1 1 121.218305,0 z"
       transform="matrix(0.9669394,0,0,0.9669394,46.92923,843.08284)" />
    <path
       transform="matrix(0.91099612,0,0,0.91099612,51.619663,847.78534)"
       d="m 144.45181,84.058365 a 60.609154,60.609154 0 1 1 -121.218305,0 60.609154,60.609154 0 1 1 121.218305,0 z"
       sodipodi:ry="60.609154"
       sodipodi:rx="60.609154"
       sodipodi:cy="84.058365"
       sodipodi:cx="83.842659"
       id="path3780"
       style="fill:none;stroke:#ffffff;stroke-width:1.00000427;stroke-linecap:round;stroke-linejoin:round;stroke-miterlimit:4;stroke-opacity:1;stroke-dasharray:1.00000427,3.00001282;stroke-dashoffset:0"
       sodipodi:type="arc" />
    <text
       xml:space="preserve"
       style="font-size:40px;font-style:normal;font-weight:normal;line-height:125%;letter-spacing:0px;word-spacing:0px;fill:#000000;fill-opacity:1;stroke:none;font-family:Sans"
       x="212.63712"
       y="128.2157"
       id="text3815"
       sodipodi:linespacing="125%"
       transform="translate(0,796.36218)"><tspan
         sodipodi:role="line"
         id="tspan3817" /></text>
    <text
       xml:space="preserve"
       style="font-size:13px;font-style:normal;font-variant:normal;font-weight:normal;font-stretch:normal;line-height:125%;letter-spacing:0px;word-spacing:0px;fill:#808080;fill-opacity:1;stroke:none;font-family:Bebas Neue;-inkscape-font-specification:Bebas Neue"
       id="text3126-1"
       sodipodi:linespacing="125%"
       y="885.21674"
       x="117.01598"><tspan
         sodipodi:role="line"
         id="tspan3128-7"
         x="117.01598"
         y="885.21674">LIVES</tspan></text>
    <text
       sodipodi:linespacing="125%"
       id="text3819"
       y="971.48071"
       x="115.01666"
       style="font-size:13px;font-style:normal;font-variant:normal;font-weight:normal;font-stretch:normal;line-height:125%;letter-spacing:0px;word-spacing:0px;fill:#808080;fill-opacity:1;stroke:none;font-family:Bebas Neue;-inkscape-font-specification:Bebas Neue"
       xml:space="preserve"><tspan
         y="971.48071"
         x="115.01666"
         id="tspan3821"
         sodipodi:role="line">NUKES</tspan></text>
    <g
       id="g3816">
      <path
         sodipodi:type="arc"
         style="fill:none;stroke:#ffffff;stroke-width:1;stroke-linecap:round;stroke-linejoin:round;stroke-miterlimit:4;stroke-opacity:1;stroke-dasharray:none;stroke-dashoffset:0"
         id="path3788"
         sodipodi:cx="83.842659"
         sodipodi:cy="84.058365"
         sodipodi:rx="60.609154"
         sodipodi:ry="60.609154"
         d="m 144.45181,84.058365 a 60.609154,60.609154 0 1 1 -121.218305,0 60.609154,60.609154 0 1 1 121.218305,0 z"
         transform="matrix(0.9669394,0,0,0.9669394,-193.07077,843.08284)" />
      <path
         transform="matrix(0.91099612,0,0,0.91099612,-188.38034,847.78534)"
         d="m 144.45181,84.058365 a 60.609154,60.609154 0 1 1 -121.218305,0 60.609154,60.609154 0 1 1 121.218305,0 z"
         sodipodi:ry="60.609154"
         sodipodi:rx="60.609154"
         sodipodi:cy="84.058365"
         sodipodi:cx="83.842659"
         id="path3790"
         style="fill:none;stroke:#ffffff;stroke-width:1.00000429;stroke-linecap:round;stroke-linejoin:round;stroke-miterlimit:4;stroke-opacity:1;stroke-dasharray:1.00000427, 3.00001282;stroke-dashoffset:0"
         sodipodi:type="arc" />
      <text
         xml:space="preserve"
         style="font-size:13px;font-style:normal;font-variant:normal;font-weight:normal;font-stretch:normal;line-height:125%;letter-spacing:0px;word-spacing:0px;fill:#808080;fill-opacity:1;stroke:none;font-family:Bebas Neue;-inkscape-font-specification:Bebas Neue"
         x="-44.037773"
         y="883.19641"
         id="text3792"
         sodipodi:linespacing="125%"><tspan
           sodipodi:role="line"
           id="tspan3794"
           x="-44.037773"
           y="883.19641">HEALTH</tspan></text>
      <text
         sodipodi:linespacing="125%"
         id="text3796"
         y="974.51117"
         x="-44.024773"
         style="font-size:13px;font-style:normal;font-variant:normal;font-weight:normal;font-stretch:normal;line-height:125%;letter-spacing:0px;word-spacing:0px;fill:#808080;fill-opacity:1;stroke:none;font-family:Bebas Neue;-inkscape-font-specification:Bebas Neue"
         xml:space="preserve"><tspan
           y="974.51117"
           x="-44.024773"
           id="tspan3798"
           sodipodi:role="line">NUKES</tspan></text>
      <text
         xml:space="preserve"
         style="font-size:13px;font-style:normal;font-variant:normal;font-weight:normal;font-stretch:normal;line-height:125%;letter-spacing:0px;word-spacing:0px;fill:#808080;fill-opacity:1;stroke:none;font-family:Bebas Neue;-inkscape-font-specification:Bebas Neue"
         x="-205.90469"
         y="974.51764"
         id="text3800"
         sodipodi:linespacing="125%"><tspan
           sodipodi:role="line"
           id="tspan3802"
           x="-205.90469"
           y="974.51764">RAGE</tspan></text>
      <text
         xml:space="preserve"
         style="font-size:13px;font-style:normal;font-variant:normal;font-weight:normal;font-stretch:normal;line-height:125%;letter-spacing:0px;word-spacing:0px;fill:#808080;fill-opacity:1;stroke:none;font-family:Bebas Neue;-inkscape-font-specification:Bebas Neue"
         x="-209.75146"
         y="883.19684"
         id="text3804"
         sodipodi:linespacing="125%"
         inkscape:transform-center-x="-19.192898"
         inkscape:transform-center-y="27.274119"><tspan
           sodipodi:role="line"
           id="tspan3806"
           x="-209.75146"
           y="883.19684">TIMER</tspan></text>
      <path
         style="fill:none;stroke:#ffffff;stroke-width:1px;stroke-linecap:butt;stroke-linejoin:miter;stroke-opacity:1"
         d="m -59.68777,896.79869 11.61675,-9.09137 39.39595,-1.4e-4"
         id="path3808"
         inkscape:connector-curvature="0"
         sodipodi:nodetypes="ccc" />
      <path
         inkscape:connector-curvature="0"
         id="path3810"
         d="m -164.1753,896.79869 -11.61675,-9.09151 -39.39595,0"
         style="fill:none;stroke:#ffffff;stroke-width:1px;stroke-linecap:butt;stroke-linejoin:miter;stroke-opacity:1"
         sodipodi:nodetypes="ccc" />
      <path
         inkscape:connector-curvature="0"
         id="path3812"
         d="m -59.68777,951.70732 11.61675,8.58586 39.39595,4.3e-4"
         style="fill:none;stroke:#ffffff;stroke-width:1px;stroke-linecap:butt;stroke-linejoin:miter;stroke-opacity:1"
         sodipodi:nodetypes="ccc" />
      <path
         style="fill:none;stroke:#ffffff;stroke-width:1px;stroke-linecap:butt;stroke-linejoin:miter;stroke-opacity:1"
         d="m -164.1753,951.70732 -11.61675,8.58586 -39.39595,0"
         id="path3814"
         inkscape:connector-curvature="0"
         sodipodi:nodetypes="ccc" />
    </g>
  </g>
</svg>
