<?xml version="1.0" encoding="UTF-8" standalone="no"?>
<!-- Created with Inkscape (http://www.inkscape.org/) -->

<svg
   xmlns:dc="http://purl.org/dc/elements/1.1/"
   xmlns:cc="http://creativecommons.org/ns#"
   xmlns:rdf="http://www.w3.org/1999/02/22-rdf-syntax-ns#"
   xmlns:svg="http://www.w3.org/2000/svg"
   xmlns="http://www.w3.org/2000/svg"
   xmlns:xlink="http://www.w3.org/1999/xlink"
   xmlns:sodipodi="http://sodipodi.sourceforge.net/DTD/sodipodi-0.dtd"
   xmlns:inkscape="http://www.inkscape.org/namespaces/inkscape"
   width="422"
   height="422"
   id="svg2"
   sodipodi:version="0.32"
   inkscape:version="0.91 r13725"
   version="1.0"
   sodipodi:docname="Xbox360Controls.svg"
   inkscape:output_extension="org.inkscape.output.svg.inkscape"
   inkscape:export-filename="C:\Users\paul.cunningham\Source\_____Source\_____PumpkinGames\Transition\Resources\Sprites\GUI\Images\ControlsGamepad.png"
   inkscape:export-xdpi="89.989204"
   inkscape:export-ydpi="89.989204">
  <defs
     id="defs4">
    <linearGradient
       id="linearGradient4849">
      <stop
         style="stop-color:#ffffff;stop-opacity:0;"
         offset="0"
         id="stop4851" />
      <stop
         id="stop4857"
         offset="0.5"
         style="stop-color:#ffffff;stop-opacity:1;" />
      <stop
         style="stop-color:#ffffff;stop-opacity:0;"
         offset="1"
         id="stop4853" />
    </linearGradient>
    <linearGradient
       id="linearGradient4301">
      <stop
         id="stop4303"
         offset="0"
         style="stop-color:#ffffff;stop-opacity:1;" />
      <stop
         id="stop4305"
         offset="1"
         style="stop-color:#ffffff;stop-opacity:0;" />
    </linearGradient>
    <linearGradient
       id="linearGradient4441">
      <stop
         id="stop4443"
         offset="0"
         style="stop-color:#ffd271;stop-opacity:1;" />
      <stop
         id="stop4445"
         offset="1"
         style="stop-color:#ffd271;stop-opacity:0;" />
    </linearGradient>
    <linearGradient
       id="linearGradient4433">
      <stop
         id="stop4435"
         offset="0"
         style="stop-color:#ffd535;stop-opacity:1;" />
      <stop
         id="stop4437"
         offset="1"
         style="stop-color:#e77c00;stop-opacity:1;" />
    </linearGradient>
    <linearGradient
       id="linearGradient4405">
      <stop
         id="stop4407"
         offset="0"
         style="stop-color:#ffffff;stop-opacity:0;" />
      <stop
         id="stop4409"
         offset="1"
         style="stop-color:#959595;stop-opacity:1;" />
    </linearGradient>
    <linearGradient
       id="linearGradient4356">
      <stop
         style="stop-color:#ffffff;stop-opacity:1;"
         offset="0"
         id="stop4358" />
      <stop
         style="stop-color:#ffffff;stop-opacity:0;"
         offset="1"
         id="stop4360" />
    </linearGradient>
    <linearGradient
       id="linearGradient4326">
      <stop
         style="stop-color:#ffff00;stop-opacity:1;"
         offset="0"
         id="stop4328" />
      <stop
         style="stop-color:#f0c000;stop-opacity:1;"
         offset="1"
         id="stop4330" />
    </linearGradient>
    <linearGradient
       inkscape:collect="always"
       id="linearGradient4250">
      <stop
         style="stop-color:#b31ab3;stop-opacity:1;"
         offset="0"
         id="stop4252" />
      <stop
         style="stop-color:#b31ab3;stop-opacity:0;"
         offset="1"
         id="stop4254" />
    </linearGradient>
    <linearGradient
       inkscape:collect="always"
       id="linearGradient4242">
      <stop
         style="stop-color:#1ab3b3;stop-opacity:1;"
         offset="0"
         id="stop4244" />
      <stop
         style="stop-color:#1ab3b3;stop-opacity:0;"
         offset="1"
         id="stop4246" />
    </linearGradient>
    <linearGradient
       inkscape:collect="always"
       id="linearGradient4234">
      <stop
         style="stop-color:#ad5900;stop-opacity:1;"
         offset="0"
         id="stop4236" />
      <stop
         style="stop-color:#ad5900;stop-opacity:0;"
         offset="1"
         id="stop4238" />
    </linearGradient>
    <linearGradient
       inkscape:collect="always"
       id="linearGradient4226">
      <stop
         style="stop-color:#b3b31a;stop-opacity:1;"
         offset="0"
         id="stop4228" />
      <stop
         style="stop-color:#b3b31a;stop-opacity:0;"
         offset="1"
         id="stop4230" />
    </linearGradient>
    <linearGradient
       inkscape:collect="always"
       id="linearGradient4218">
      <stop
         style="stop-color:#1ab31a;stop-opacity:1;"
         offset="0"
         id="stop4220" />
      <stop
         style="stop-color:#1ab31a;stop-opacity:0;"
         offset="1"
         id="stop4222" />
    </linearGradient>
    <linearGradient
       inkscape:collect="always"
       id="linearGradient4210">
      <stop
         style="stop-color:#4040d9;stop-opacity:1;"
         offset="0"
         id="stop4212" />
      <stop
         style="stop-color:#4040d9;stop-opacity:0;"
         offset="1"
         id="stop4214" />
    </linearGradient>
    <linearGradient
       inkscape:collect="always"
       id="linearGradient4202">
      <stop
         style="stop-color:#cc1a1a;stop-opacity:1;"
         offset="0"
         id="stop4204" />
      <stop
         style="stop-color:#cc1a1a;stop-opacity:0;"
         offset="1"
         id="stop4206" />
    </linearGradient>
    <linearGradient
       id="linearGradient4520">
      <stop
         id="stop4522"
         offset="0"
         style="stop-color:#ffffff;stop-opacity:1;" />
      <stop
         id="stop4524"
         offset="1"
         style="stop-color:#ffffff;stop-opacity:0.67826086;" />
    </linearGradient>
    <linearGradient
       inkscape:collect="always"
       id="linearGradient4263">
      <stop
         style="stop-color:#ffffff;stop-opacity:1;"
         offset="0"
         id="stop4265" />
      <stop
         style="stop-color:#ffffff;stop-opacity:0;"
         offset="1"
         id="stop4267" />
    </linearGradient>
    <linearGradient
       id="linearGradient4257">
      <stop
         style="stop-color:#ffffff;stop-opacity:1;"
         offset="0"
         id="stop4259" />
      <stop
         style="stop-color:#2e3535;stop-opacity:1;"
         offset="1"
         id="stop4261" />
    </linearGradient>
    <linearGradient
       id="linearGradient4014">
      <stop
         id="stop4016"
         offset="0"
         style="stop-color:#ff002d;stop-opacity:1;" />
      <stop
         id="stop4018"
         offset="1"
         style="stop-color:#ff5ceb;stop-opacity:1;" />
    </linearGradient>
    <linearGradient
       id="linearGradient3992">
      <stop
         id="stop3994"
         offset="0"
         style="stop-color:#ff6aff;stop-opacity:1;" />
      <stop
         id="stop3996"
         offset="1"
         style="stop-color:#442dff;stop-opacity:1;" />
    </linearGradient>
    <linearGradient
       id="linearGradient3984">
      <stop
         style="stop-color:#ff6aff;stop-opacity:1;"
         offset="0"
         id="stop3986" />
      <stop
         style="stop-color:#ff6aff;stop-opacity:0;"
         offset="1"
         id="stop3988" />
    </linearGradient>
    <linearGradient
       id="linearGradient3978">
      <stop
         id="stop3980"
         offset="0"
         style="stop-color:#7b0036;stop-opacity:1;" />
      <stop
         id="stop3982"
         offset="1"
         style="stop-color:#323437;stop-opacity:1;" />
    </linearGradient>
    <linearGradient
       id="linearGradient3962">
      <stop
         style="stop-color:#000000;stop-opacity:1;"
         offset="0"
         id="stop3964" />
      <stop
         style="stop-color:#792d2e;stop-opacity:1"
         offset="1"
         id="stop3966" />
    </linearGradient>
    <linearGradient
       id="linearGradient3888">
      <stop
         style="stop-color:#ffffff;stop-opacity:0;"
         offset="0"
         id="stop3890" />
      <stop
         style="stop-color:#ffffff;stop-opacity:0.19642857;"
         offset="1"
         id="stop3892" />
    </linearGradient>
    <linearGradient
       id="linearGradient3437">
      <stop
         style="stop-color:#ffffff;stop-opacity:1;"
         offset="0"
         id="stop3439" />
      <stop
         style="stop-color:#829797;stop-opacity:1;"
         offset="1"
         id="stop3441" />
    </linearGradient>
    <linearGradient
       id="linearGradient3431">
      <stop
         style="stop-color:#ffffff;stop-opacity:1;"
         offset="0"
         id="stop3433" />
      <stop
         style="stop-color:#829797;stop-opacity:1;"
         offset="1"
         id="stop3435" />
    </linearGradient>
    <inkscape:perspective
       sodipodi:type="inkscape:persp3d"
       inkscape:vp_x="0 : 32 : 1"
       inkscape:vp_y="0 : 1000 : 0"
       inkscape:vp_z="64 : 32 : 1"
       inkscape:persp3d-origin="32 : 21.333333 : 1"
       id="perspective252" />
    <linearGradient
       inkscape:collect="always"
       id="linearGradient3377">
      <stop
         style="stop-color:#ffffff;stop-opacity:1;"
         offset="0"
         id="stop3379" />
      <stop
         style="stop-color:#ffffff;stop-opacity:0;"
         offset="1"
         id="stop3381" />
    </linearGradient>
    <linearGradient
       id="linearGradient4502">
      <stop
         id="stop4504"
         offset="0"
         style="stop-color:#ffffff;stop-opacity:1;" />
      <stop
         id="stop4506"
         offset="1"
         style="stop-color:#829797;stop-opacity:1;" />
    </linearGradient>
    <linearGradient
       id="linearGradient4480">
      <stop
         style="stop-color:#ffffff;stop-opacity:1;"
         offset="0"
         id="stop4482" />
      <stop
         style="stop-color:#829797;stop-opacity:1;"
         offset="1"
         id="stop4484" />
    </linearGradient>
    <linearGradient
       inkscape:collect="always"
       id="linearGradient2228">
      <stop
         style="stop-color:#000000;stop-opacity:1;"
         offset="0"
         id="stop2230" />
      <stop
         style="stop-color:#000000;stop-opacity:0;"
         offset="1"
         id="stop2232" />
    </linearGradient>
    <linearGradient
       inkscape:collect="always"
       xlink:href="#linearGradient2228"
       id="linearGradient2234"
       x1="35.355339"
       y1="-467.84531"
       x2="47.982246"
       y2="-474.91638"
       gradientUnits="userSpaceOnUse"
       gradientTransform="translate(1054.031,386.69901)" />
    <linearGradient
       inkscape:collect="always"
       xlink:href="#linearGradient2228"
       id="linearGradient3305"
       gradientUnits="userSpaceOnUse"
       x1="35.355339"
       y1="-467.84531"
       x2="47.982246"
       y2="-474.91638"
       gradientTransform="translate(1054.031,386.69901)" />
    <linearGradient
       inkscape:collect="always"
       xlink:href="#linearGradient4502"
       id="linearGradient4486"
       x1="-354.79636"
       y1="-193.29295"
       x2="-354.79636"
       y2="-131.83543"
       gradientUnits="userSpaceOnUse"
       gradientTransform="matrix(1.0778584,0,0,1.0778584,27.851706,11.275917)" />
    <linearGradient
       inkscape:collect="always"
       xlink:href="#linearGradient4502"
       id="linearGradient4500"
       x1="-340.8046"
       y1="-130.63544"
       x2="-340.61432"
       y2="-194.49295"
       gradientUnits="userSpaceOnUse"
       gradientTransform="matrix(1.0778584,0,0,1.0778584,27.851706,11.275917)" />
    <radialGradient
       inkscape:collect="always"
       xlink:href="#linearGradient3377"
       id="radialGradient3383"
       cx="-378.13638"
       cy="-239.55873"
       fx="-378.13638"
       fy="-239.55873"
       r="30.65971"
       gradientUnits="userSpaceOnUse"
       gradientTransform="translate(318.19804,223.18057)" />
    <linearGradient
       inkscape:collect="always"
       xlink:href="#linearGradient3437"
       id="linearGradient3449"
       x1="-476.10248"
       y1="-190.62598"
       x2="-476.10248"
       y2="-109.25498"
       gradientUnits="userSpaceOnUse"
       gradientTransform="translate(-4.3062578e-6,-2.7425836e-6)" />
    <linearGradient
       inkscape:collect="always"
       xlink:href="#linearGradient3431"
       id="linearGradient3457"
       x1="-457.91913"
       y1="-36.170403"
       x2="-457.82562"
       y2="-190.62598"
       gradientUnits="userSpaceOnUse"
       gradientTransform="translate(-4.3062578e-6,-2.7425836e-6)" />
    <linearGradient
       inkscape:collect="always"
       xlink:href="#linearGradient4502"
       id="linearGradient2690"
       gradientUnits="userSpaceOnUse"
       gradientTransform="matrix(0.9266588,0,0,0.9079213,1644.3792,666.63357)"
       x1="-354.79636"
       y1="-193.29295"
       x2="-354.79636"
       y2="-131.83543" />
    <linearGradient
       inkscape:collect="always"
       xlink:href="#linearGradient4502"
       id="linearGradient2692"
       gradientUnits="userSpaceOnUse"
       gradientTransform="matrix(0.9266588,0,0,0.9079213,1644.3792,666.63357)"
       x1="-340.8046"
       y1="-130.63544"
       x2="-340.61432"
       y2="-194.49295" />
    <filter
       height="1.1719933"
       y="-0.085996673"
       width="1.3969585"
       x="-0.19847926"
       id="filter3525"
       inkscape:collect="always"
       color-interpolation-filters="sRGB">
      <feGaussianBlur
         id="feGaussianBlur3527"
         stdDeviation="2.3975795"
         inkscape:collect="always" />
    </filter>
    <filter
       height="1.1566646"
       y="-0.078332283"
       width="1.5127499"
       x="-0.25637493"
       id="filter3512"
       inkscape:collect="always"
       color-interpolation-filters="sRGB">
      <feGaussianBlur
         id="feGaussianBlur3514"
         stdDeviation="2.8832923"
         inkscape:collect="always" />
    </filter>
    <inkscape:perspective
       sodipodi:type="inkscape:persp3d"
       inkscape:vp_x="0 : 526.18109 : 1"
       inkscape:vp_y="0 : 1000 : 0"
       inkscape:vp_z="744.09448 : 526.18109 : 1"
       inkscape:persp3d-origin="372.04724 : 350.78739 : 1"
       id="perspective2629" />
    <inkscape:perspective
       sodipodi:type="inkscape:persp3d"
       inkscape:vp_x="0 : 526.18109 : 1"
       inkscape:vp_y="0 : 1000 : 0"
       inkscape:vp_z="744.09448 : 526.18109 : 1"
       inkscape:persp3d-origin="372.04724 : 350.78739 : 1"
       id="perspective2445" />
    <inkscape:perspective
       id="perspective10"
       inkscape:persp3d-origin="372.04724 : 350.78739 : 1"
       inkscape:vp_z="744.09448 : 526.18109 : 1"
       inkscape:vp_y="0 : 1000 : 0"
       inkscape:vp_x="0 : 526.18109 : 1"
       sodipodi:type="inkscape:persp3d" />
    <inkscape:perspective
       id="perspective3946"
       inkscape:persp3d-origin="372.04724 : 350.78739 : 1"
       inkscape:vp_z="744.09448 : 526.18109 : 1"
       inkscape:vp_y="0 : 1000 : 0"
       inkscape:vp_x="0 : 526.18109 : 1"
       sodipodi:type="inkscape:persp3d" />
    <radialGradient
       inkscape:collect="always"
       xlink:href="#linearGradient3888"
       id="radialGradient4201"
       gradientUnits="userSpaceOnUse"
       gradientTransform="matrix(1.0643565,0,0,1.0643565,734.4318,631.95086)"
       cx="35.838711"
       cy="38.519299"
       fx="35.838711"
       fy="38.519299"
       r="29.523979" />
    <radialGradient
       inkscape:collect="always"
       xlink:href="#linearGradient3888"
       id="radialGradient4203"
       gradientUnits="userSpaceOnUse"
       gradientTransform="matrix(1.0643565,0,0,1.0643565,499.60943,635.69781)"
       cx="35.838711"
       cy="38.519299"
       fx="35.838711"
       fy="38.519299"
       r="29.523979" />
    <radialGradient
       inkscape:collect="always"
       xlink:href="#linearGradient3888"
       id="radialGradient4223"
       gradientUnits="userSpaceOnUse"
       gradientTransform="matrix(1.0643565,0,0,1.0643565,653.87861,632.53884)"
       cx="35.838711"
       cy="38.519299"
       fx="35.838711"
       fy="38.519299"
       r="29.523979" />
    <radialGradient
       inkscape:collect="always"
       xlink:href="#linearGradient3888"
       id="radialGradient4233"
       gradientUnits="userSpaceOnUse"
       gradientTransform="matrix(1.0643565,0,0,1.0643565,576.26532,632.53884)"
       cx="35.838711"
       cy="38.519299"
       fx="35.838711"
       fy="38.519299"
       r="29.523979" />
    <linearGradient
       inkscape:collect="always"
       xlink:href="#linearGradient3962"
       id="linearGradient3968"
       x1="336.51401"
       y1="715.14044"
       x2="305.51596"
       y2="552.72687"
       gradientUnits="userSpaceOnUse" />
    <linearGradient
       inkscape:collect="always"
       xlink:href="#linearGradient3978"
       id="linearGradient3976"
       x1="253.02818"
       y1="556.53156"
       x2="272.33582"
       y2="641.60535"
       gradientUnits="userSpaceOnUse" />
    <linearGradient
       inkscape:collect="always"
       xlink:href="#linearGradient3992"
       id="linearGradient3990"
       x1="-109.36404"
       y1="606.25"
       x2="768.41541"
       y2="606.25"
       gradientUnits="userSpaceOnUse" />
    <linearGradient
       inkscape:collect="always"
       xlink:href="#linearGradient4014"
       id="linearGradient4012"
       x1="-103.21802"
       y1="625.64722"
       x2="765.13538"
       y2="625.64722"
       gradientUnits="userSpaceOnUse" />
    <linearGradient
       inkscape:collect="always"
       xlink:href="#linearGradient4263"
       id="linearGradient4488"
       gradientUnits="userSpaceOnUse"
       gradientTransform="translate(-4.4866943e-6,2.2338867e-8)"
       x1="-0.52782458"
       y1="-45.680588"
       x2="23.868277"
       y2="32" />
    <linearGradient
       inkscape:collect="always"
       xlink:href="#linearGradient4502"
       id="linearGradient4490"
       gradientUnits="userSpaceOnUse"
       gradientTransform="matrix(0.9266588,0,0,0.9079213,704.52499,-131.34198)"
       x1="-340.8046"
       y1="-130.63544"
       x2="-340.61432"
       y2="-194.49295" />
    <linearGradient
       inkscape:collect="always"
       xlink:href="#linearGradient4502"
       id="linearGradient4492"
       gradientUnits="userSpaceOnUse"
       gradientTransform="matrix(0.9266588,0,0,0.9079213,704.52499,-131.34198)"
       x1="-340.8046"
       y1="-130.63544"
       x2="-340.61432"
       y2="-194.49295" />
    <linearGradient
       inkscape:collect="always"
       xlink:href="#linearGradient4520"
       id="linearGradient4545"
       gradientUnits="userSpaceOnUse"
       gradientTransform="translate(-79.549517,92.984541)"
       x1="-0.52782458"
       y1="-45.680588"
       x2="23.868277"
       y2="32" />
    <linearGradient
       inkscape:collect="always"
       xlink:href="#linearGradient4502"
       id="linearGradient4547"
       gradientUnits="userSpaceOnUse"
       gradientTransform="matrix(0.9266588,0,0,0.9079213,624.97548,-38.357439)"
       x1="-340.8046"
       y1="-130.63544"
       x2="-340.61432"
       y2="-194.49295" />
    <linearGradient
       inkscape:collect="always"
       xlink:href="#linearGradient4202"
       id="linearGradient4208"
       x1="3"
       y1="2"
       x2="15"
       y2="14"
       gradientUnits="userSpaceOnUse"
       gradientTransform="matrix(2.0000001,0,0,2.0000001,1087.9999,965.99994)" />
    <linearGradient
       inkscape:collect="always"
       xlink:href="#linearGradient4210"
       id="linearGradient4216"
       x1="21"
       y1="2"
       x2="33"
       y2="14"
       gradientUnits="userSpaceOnUse"
       gradientTransform="matrix(2.0000001,0,0,2.0000001,1087.9999,965.99994)" />
    <linearGradient
       inkscape:collect="always"
       xlink:href="#linearGradient4218"
       id="linearGradient4224"
       x1="39"
       y1="2"
       x2="51"
       y2="14"
       gradientUnits="userSpaceOnUse"
       gradientTransform="matrix(2.0000001,0,0,2.0000001,1087.9999,965.99994)" />
    <linearGradient
       inkscape:collect="always"
       xlink:href="#linearGradient4226"
       id="linearGradient4232"
       x1="57"
       y1="2"
       x2="69"
       y2="14"
       gradientUnits="userSpaceOnUse"
       gradientTransform="matrix(2.0000001,0,0,2.0000001,1087.9999,965.99994)" />
    <linearGradient
       inkscape:collect="always"
       xlink:href="#linearGradient4234"
       id="linearGradient4240"
       x1="75"
       y1="2"
       x2="87"
       y2="14"
       gradientUnits="userSpaceOnUse"
       gradientTransform="matrix(2.0000001,0,0,2.0000001,1087.9999,965.99994)" />
    <linearGradient
       inkscape:collect="always"
       xlink:href="#linearGradient4242"
       id="linearGradient4248"
       x1="93"
       y1="2"
       x2="105"
       y2="14"
       gradientUnits="userSpaceOnUse"
       gradientTransform="matrix(2.0000001,0,0,2.0000001,1087.9999,965.99994)" />
    <linearGradient
       inkscape:collect="always"
       xlink:href="#linearGradient4250"
       id="linearGradient4256"
       x1="111"
       y1="2"
       x2="123"
       y2="14"
       gradientUnits="userSpaceOnUse"
       gradientTransform="matrix(2.0000001,0,0,2.0000001,1087.9999,965.99994)" />
    <linearGradient
       inkscape:collect="always"
       xlink:href="#linearGradient4520"
       id="linearGradient3468"
       gradientUnits="userSpaceOnUse"
       gradientTransform="translate(-79.549517,92.984541)"
       x1="-0.52782458"
       y1="-45.680588"
       x2="23.868277"
       y2="32" />
    <linearGradient
       inkscape:collect="always"
       xlink:href="#linearGradient4502"
       id="linearGradient3470"
       gradientUnits="userSpaceOnUse"
       gradientTransform="matrix(0.9266588,0,0,0.9079213,624.97548,-38.357439)"
       x1="-340.8046"
       y1="-130.63544"
       x2="-340.61432"
       y2="-194.49295" />
    <linearGradient
       inkscape:collect="always"
       xlink:href="#linearGradient4520"
       id="linearGradient3489"
       gradientUnits="userSpaceOnUse"
       gradientTransform="translate(1145.7458,898.47568)"
       x1="-0.52782458"
       y1="-45.680588"
       x2="23.868277"
       y2="32" />
    <linearGradient
       inkscape:collect="always"
       xlink:href="#linearGradient4502"
       id="linearGradient3491"
       gradientUnits="userSpaceOnUse"
       gradientTransform="matrix(0.9266588,0,0,0.9079213,1850.2708,767.1337)"
       x1="-340.8046"
       y1="-130.63544"
       x2="-340.61432"
       y2="-194.49295" />
    <radialGradient
       inkscape:collect="always"
       xlink:href="#linearGradient4405"
       id="radialGradient4424"
       gradientUnits="userSpaceOnUse"
       cx="32"
       cy="58"
       fx="32"
       fy="58"
       r="19.058825" />
    <radialGradient
       inkscape:collect="always"
       xlink:href="#linearGradient4356"
       id="radialGradient4426"
       gradientUnits="userSpaceOnUse"
       cx="27.5"
       cy="40.5"
       fx="27.5"
       fy="40.5"
       r="3.5" />
    <radialGradient
       inkscape:collect="always"
       xlink:href="#linearGradient4433"
       id="radialGradient4466"
       gradientUnits="userSpaceOnUse"
       cx="32"
       cy="58"
       fx="32"
       fy="58"
       r="19.058825" />
    <radialGradient
       inkscape:collect="always"
       xlink:href="#linearGradient4441"
       id="radialGradient4468"
       gradientUnits="userSpaceOnUse"
       cx="27.5"
       cy="40.5"
       fx="27.5"
       fy="40.5"
       r="3.5" />
    <linearGradient
       inkscape:collect="always"
       xlink:href="#linearGradient4301"
       id="linearGradient3517"
       gradientUnits="userSpaceOnUse"
       gradientTransform="matrix(2.0689656,0,0,2.0689654,-21.005441,173.39653)"
       x1="3"
       y1="2"
       x2="15"
       y2="14" />
    <linearGradient
       inkscape:collect="always"
       xlink:href="#linearGradient4849"
       id="linearGradient4855"
       x1="-49"
       y1="-117"
       x2="425"
       y2="-117"
       gradientUnits="userSpaceOnUse"
       gradientTransform="matrix(1.5880053,0,0,0.95385192,-86.242983,124.60067)" />
  </defs>
  <sodipodi:namedview
     id="base"
     pagecolor="#000000"
     bordercolor="#ff6600"
     borderopacity="1"
     gridtolerance="10000"
     guidetolerance="10"
     objecttolerance="10"
     inkscape:pageopacity="0.49019608"
     inkscape:pageshadow="2"
     inkscape:zoom="1.0000001"
     inkscape:cx="464.40254"
     inkscape:cy="-274.59081"
     inkscape:document-units="px"
     inkscape:current-layer="layer1"
     width="64px"
     height="64px"
     inkscape:window-width="1561"
     inkscape:window-height="881"
     inkscape:window-x="0"
     inkscape:window-y="71"
     showgrid="true"
     showguides="false"
     inkscape:showpageshadow="true"
     borderlayer="true"
     showborder="true"
     inkscape:window-maximized="0">
    <inkscape:grid
       type="xygrid"
       id="grid4089"
       visible="true"
       enabled="false"
       dotted="false"
       empspacing="8"
       color="#2cff00"
       opacity="0.1254902"
       empcolor="#6fff00"
       empopacity="0.25098039"
       snapvisiblegridlinesonly="true" />
  </sodipodi:namedview>
  <metadata
     id="metadata7">
    <rdf:RDF>
      <cc:Work
         rdf:about="">
        <dc:format>image/svg+xml</dc:format>
        <dc:type
           rdf:resource="http://purl.org/dc/dcmitype/StillImage" />
        <dc:title></dc:title>
      </cc:Work>
    </rdf:RDF>
  </metadata>
  <g
     inkscape:label="Layer 1"
     inkscape:groupmode="layer"
     id="layer1"
     transform="translate(0,390)"
     style="display:inline">
    <path
       sodipodi:nodetypes="ssssssssscs"
       id="path4096"
       d="M 86.08834,-254.41491 C 74.1195,-241.87545 6.00423,-55.114904 64.89461,-42.466198 c 23.44022,5.034583 53.06084,-46.990921 88.19344,-62.900902 20.67767,-9.364 86.4699,-13.49673 121.00941,2.73482 30.66479,14.410637 65.77349,67.157332 83.40766,58.79867 56.14238,-26.611695 -4.70814,-186.95508 -22.56106,-208.53018 -9.56797,-11.5628 -46.2639,-17.19087 -56.06089,-12.82395 -11.53744,5.14272 -23.99764,15.36853 -36.51773,17.0435 -16.82432,2.25078 -38.3641,2.53629 -58.51238,1.16714 -11.58272,-0.78708 -41.02013,-17.52694 -41.02013,-17.52694 -5.61722,-4.2101 -45.09669,-2.1141 -56.74459,10.08913 z"
       style="fill:none;fill-opacity:1;stroke:#ffffff;stroke-width:3;stroke-linecap:butt;stroke-linejoin:miter;stroke-miterlimit:4;stroke-opacity:1;stroke-dasharray:none;display:inline"
       inkscape:connector-curvature="0" />
    <path
       inkscape:connector-curvature="0"
       style="fill:none;stroke:#ffffff;stroke-width:3;stroke-linecap:butt;stroke-linejoin:miter;stroke-miterlimit:4;stroke-opacity:1;stroke-dasharray:none;display:inline"
       d="m 88.38106,-256.908 c 0.71098,-4.38175 17.01741,-15.45739 27.7888,-18.44315 6.42437,-1.7808 12.83588,-1.56974 23.24477,-0.35903 2.34463,2.95307 3.92102,11.33992 4.9859,12.37331 -10.09796,-4.79474 -35.38261,-5.08484 -56.01947,6.42887 z"
       id="path4756"
       sodipodi:nodetypes="csccc" />
    <path
       inkscape:connector-curvature="0"
       sodipodi:nodetypes="csccc"
       id="path4758"
       d="m 333.42058,-254.24902 c 2.18965,-4.38175 -17.20684,-19.76222 -28.03047,-22.55249 -6.90781,-1.7808 -14.52788,-1.81146 -23.24477,-0.35903 -2.34463,2.95306 -3.92103,11.33992 -4.9859,12.37331 10.09796,-4.79474 35.62428,-0.97549 56.26114,10.53821 z"
       style="fill:none;stroke:#ffffff;stroke-width:3;stroke-linecap:butt;stroke-linejoin:miter;stroke-miterlimit:4;stroke-opacity:1;stroke-dasharray:none;display:inline" />
    <path
       transform="matrix(0.67679817,0,0,0.67683394,1207.3063,23.999959)"
       d="m -1504.1171,-271.94781 a 39.39595,39.39595 0 0 1 -39.396,39.39595 39.39595,39.39595 0 0 1 -39.3959,-39.39595 39.39595,39.39595 0 0 1 39.3959,-39.39596 39.39595,39.39595 0 0 1 39.396,39.39596 z"
       sodipodi:ry="39.39595"
       sodipodi:rx="39.39595"
       sodipodi:cy="-271.94781"
       sodipodi:cx="-1543.5131"
       id="path4804"
       style="fill:none;stroke:#ffffff;stroke-width:4.43251897;stroke-linecap:butt;stroke-linejoin:miter;stroke-miterlimit:4;stroke-opacity:1;stroke-dasharray:none;stroke-dashoffset:0"
       sodipodi:type="arc" />
    <path
       transform="matrix(0.55532157,0,0,0.55535088,974.6833,-64.417215)"
       d="m -1504.1171,-271.94781 a 39.39595,39.39595 0 0 1 -39.396,39.39595 39.39595,39.39595 0 0 1 -39.3959,-39.39595 39.39595,39.39595 0 0 1 39.3959,-39.39596 39.39595,39.39595 0 0 1 39.396,39.39596 z"
       sodipodi:ry="39.39595"
       sodipodi:rx="39.39595"
       sodipodi:cy="-271.94781"
       sodipodi:cx="-1543.5131"
       id="path4806"
       style="fill:none;stroke:#ffffff;stroke-width:5.40213274;stroke-linecap:butt;stroke-linejoin:miter;stroke-miterlimit:4;stroke-opacity:1;stroke-dasharray:none;stroke-dashoffset:0"
       sodipodi:type="arc" />
    <path
       sodipodi:type="arc"
       style="fill:none;stroke:#ffffff;stroke-width:5.40213274;stroke-linecap:butt;stroke-linejoin:miter;stroke-miterlimit:4;stroke-opacity:1;stroke-dasharray:none;stroke-dashoffset:0"
       id="path4808"
       sodipodi:cx="-1543.5131"
       sodipodi:cy="-271.94781"
       sodipodi:rx="39.39595"
       sodipodi:ry="39.39595"
       d="m -1504.1171,-271.94781 a 39.39595,39.39595 0 0 1 -39.396,39.39595 39.39595,39.39595 0 0 1 -39.3959,-39.39595 39.39595,39.39595 0 0 1 39.3959,-39.39596 39.39595,39.39595 0 0 1 39.396,39.39596 z"
       transform="matrix(0.55532157,0,0,0.55535088,1112.0594,-8.5121385)" />
    <path
       transform="matrix(0.38178364,0,0,0.3818038,799.80417,-108.87817)"
       d="m -1504.1171,-271.94781 a 39.39595,39.39595 0 0 1 -39.396,39.39595 39.39595,39.39595 0 0 1 -39.3959,-39.39595 39.39595,39.39595 0 0 1 39.3959,-39.39596 39.39595,39.39595 0 0 1 39.396,39.39596 z"
       sodipodi:ry="39.39595"
       sodipodi:rx="39.39595"
       sodipodi:cy="-271.94781"
       sodipodi:cx="-1543.5131"
       id="path4810"
       style="fill:none;stroke:#ffffff;stroke-width:7.85764627;stroke-linecap:butt;stroke-linejoin:miter;stroke-miterlimit:4;stroke-opacity:1;stroke-dasharray:none;stroke-dashoffset:0"
       sodipodi:type="arc" />
    <path
       sodipodi:type="arc"
       style="fill:none;stroke:#ffffff;stroke-width:10.47686206;stroke-linecap:butt;stroke-linejoin:miter;stroke-miterlimit:4;stroke-opacity:1;stroke-dasharray:none;stroke-dashoffset:0"
       id="path4812"
       sodipodi:cx="-1543.5131"
       sodipodi:cy="-271.94781"
       sodipodi:rx="39.39595"
       sodipodi:ry="39.39595"
       d="m -1504.1171,-271.94781 a 39.39595,39.39595 0 0 1 -39.396,39.39595 39.39595,39.39595 0 0 1 -39.3959,-39.39595 39.39595,39.39595 0 0 1 39.3959,-39.39596 39.39595,39.39595 0 0 1 39.396,39.39596 z"
       transform="matrix(0.28633771,0,0,0.28635285,720.50729,-136.98708)" />
    <path
       transform="matrix(0.28633771,0,0,0.28635285,745.84454,-161.64195)"
       d="m -1504.1171,-271.94781 a 39.39595,39.39595 0 0 1 -39.396,39.39595 39.39595,39.39595 0 0 1 -39.3959,-39.39595 39.39595,39.39595 0 0 1 39.3959,-39.39596 39.39595,39.39595 0 0 1 39.396,39.39596 z"
       sodipodi:ry="39.39595"
       sodipodi:rx="39.39595"
       sodipodi:cy="-271.94781"
       sodipodi:cx="-1543.5131"
       id="path4814"
       style="fill:none;stroke:#ffffff;stroke-width:10.47686206;stroke-linecap:butt;stroke-linejoin:miter;stroke-miterlimit:4;stroke-opacity:1;stroke-dasharray:none;stroke-dashoffset:0"
       sodipodi:type="arc" />
    <path
       sodipodi:type="arc"
       style="fill:none;stroke:#ffffff;stroke-width:10.47686206;stroke-linecap:butt;stroke-linejoin:miter;stroke-miterlimit:4;stroke-opacity:1;stroke-dasharray:none;stroke-dashoffset:0"
       id="path4818"
       sodipodi:cx="-1543.5131"
       sodipodi:cy="-271.94781"
       sodipodi:rx="39.39595"
       sodipodi:ry="39.39595"
       d="m -1504.1171,-271.94781 a 39.39595,39.39595 0 0 1 -39.396,39.39595 39.39595,39.39595 0 0 1 -39.3959,-39.39595 39.39595,39.39595 0 0 1 39.3959,-39.39596 39.39595,39.39595 0 0 1 39.396,39.39596 z"
       transform="matrix(0.28633771,0,0,0.28635285,770.71559,-136.60374)" />
    <path
       sodipodi:type="arc"
       style="fill:none;stroke:#ffffff;stroke-width:15.0891716;stroke-linecap:butt;stroke-linejoin:miter;stroke-miterlimit:4;stroke-opacity:1;stroke-dasharray:none;stroke-dashoffset:0"
       id="path4820"
       sodipodi:cx="-1543.5131"
       sodipodi:cy="-271.94781"
       sodipodi:rx="39.39595"
       sodipodi:ry="39.39595"
       d="m -1504.1171,-271.94781 a 39.39595,39.39595 0 0 1 -39.396,39.39595 39.39595,39.39595 0 0 1 -39.3959,-39.39595 39.39595,39.39595 0 0 1 39.3959,-39.39596 39.39595,39.39595 0 0 1 39.396,39.39596 z"
       transform="matrix(0.21692253,0,0,0.18222462,511.88062,-163.23623)" />
    <path
       sodipodi:nodetypes="cc"
       id="path4824"
       d="m 137.47099,-168.7635 c 12.37736,-0.55758 16.48302,-6.62988 15.34878,-16.19566"
       style="fill:none;stroke:#ffffff;stroke-width:3;stroke-linecap:butt;stroke-linejoin:miter;stroke-miterlimit:4;stroke-opacity:1;stroke-dasharray:none"
       inkscape:connector-curvature="0" />
    <path
       sodipodi:nodetypes="cc"
       id="path4828"
       d="m 187.48043,-150.87574 c -12.37735,0.55758 -17.47405,6.87161 -16.33981,16.43739"
       style="fill:none;stroke:#ffffff;stroke-width:3;stroke-linecap:butt;stroke-linejoin:miter;stroke-miterlimit:4;stroke-opacity:1;stroke-dasharray:none"
       inkscape:connector-curvature="0" />
    <path
       style="fill:none;stroke:#ffffff;stroke-width:3;stroke-linecap:butt;stroke-linejoin:miter;stroke-miterlimit:4;stroke-opacity:1;stroke-dasharray:none"
       d="m 137.71269,-150.87574 c 12.37735,0.55758 14.79108,4.93781 14.9862,15.22876"
       id="path4830"
       sodipodi:nodetypes="cc"
       inkscape:connector-curvature="0" />
    <path
       transform="matrix(0.21692253,0,0,0.18222462,577.88062,-163.23623)"
       d="m -1504.1171,-271.94781 a 39.39595,39.39595 0 0 1 -39.396,39.39595 39.39595,39.39595 0 0 1 -39.3959,-39.39595 39.39595,39.39595 0 0 1 39.3959,-39.39596 39.39595,39.39595 0 0 1 39.396,39.39596 z"
       sodipodi:ry="39.39595"
       sodipodi:rx="39.39595"
       sodipodi:cy="-271.94781"
       sodipodi:cx="-1543.5131"
       id="path3686"
       style="fill:none;stroke:#ffffff;stroke-width:15.0891716;stroke-linecap:butt;stroke-linejoin:miter;stroke-miterlimit:4;stroke-opacity:1;stroke-dasharray:none;stroke-dashoffset:0"
       sodipodi:type="arc" />
    <path
       style="fill:none;stroke:#ffffff;stroke-width:3;stroke-linecap:butt;stroke-linejoin:miter;stroke-miterlimit:4;stroke-opacity:1;stroke-dasharray:none"
       d="m 187.96386,-168.7635 c -12.37735,-0.55758 -17.47405,-6.87161 -16.33979,-16.43739"
       id="path4826"
       sodipodi:nodetypes="cc"
       inkscape:connector-curvature="0" />
    <path
       transform="matrix(0.2775554,0.07037247,-0.07037619,0.27757008,714.6342,-7.6898269)"
       d="m -1504.1171,-271.94781 a 39.39595,39.39595 0 0 1 -39.396,39.39595 39.39595,39.39595 0 0 1 -39.3959,-39.39595 39.39595,39.39595 0 0 1 39.3959,-39.39596 39.39595,39.39595 0 0 1 39.396,39.39596 z"
       sodipodi:ry="39.39595"
       sodipodi:rx="39.39595"
       sodipodi:cy="-271.94781"
       sodipodi:cx="-1543.5131"
       id="path4110"
       style="fill:none;stroke:#ffffff;stroke-width:10.47686196;stroke-linecap:butt;stroke-linejoin:miter;stroke-miterlimit:4;stroke-opacity:1;stroke-dasharray:none;stroke-dashoffset:0"
       sodipodi:type="arc" />
    <g
       transform="translate(400,380)"
       id="g3923">
      <path
         sodipodi:nodetypes="ssssssssscs"
         id="path3925"
         d="m -313.91166,-254.41491 c -11.96884,12.53946 -80.08411,199.300006 -21.19373,211.948712 23.44022,5.034583 53.06084,-46.990921 88.19344,-62.900902 20.67767,-9.364 86.4699,-13.49673 121.00941,2.73482 30.66479,14.410637 65.77349,67.157332 83.40766,58.79867 56.14238,-26.611695 -4.70814,-186.95508 -22.56106,-208.53018 -9.56797,-11.5628 -46.2639,-17.19087 -56.06089,-12.82395 -11.53744,5.14272 -23.99764,15.36853 -36.51773,17.0435 -16.82432,2.25078 -38.3641,2.53629 -58.51238,1.16714 -11.58272,-0.78708 -41.02013,-17.52694 -41.02013,-17.52694 -5.61722,-4.2101 -45.09669,-2.1141 -56.74459,10.08913 z"
         style="fill:#ffffff;fill-opacity:1;stroke:#808080;stroke-width:3.58498526;stroke-linecap:butt;stroke-linejoin:miter;stroke-miterlimit:4;stroke-opacity:1;stroke-dasharray:none;display:inline"
         inkscape:connector-curvature="0" />
      <path
         inkscape:connector-curvature="0"
         style="fill:#ffffff;stroke:#808080;stroke-width:3.58498526;stroke-linecap:butt;stroke-linejoin:miter;stroke-miterlimit:4;stroke-opacity:1;stroke-dasharray:none;display:inline"
         d="m -311.61894,-256.908 c 0.71098,-4.38175 17.01741,-15.45739 27.7888,-18.44315 6.42437,-1.7808 12.83588,-1.56974 23.24477,-0.35903 2.34463,2.95307 3.92102,11.33992 4.9859,12.37331 -10.09796,-4.79474 -35.38261,-5.08484 -56.01947,6.42887 z"
         id="path3927"
         sodipodi:nodetypes="csccc" />
      <path
         inkscape:connector-curvature="0"
         sodipodi:nodetypes="csccc"
         id="path3929"
         d="m -66.57942,-254.24902 c 2.18965,-4.38175 -17.20684,-19.76222 -28.03047,-22.55249 -6.90781,-1.7808 -14.52788,-1.81146 -23.24477,-0.35903 -2.34463,2.95306 -3.92103,11.33992 -4.9859,12.37331 10.09796,-4.79474 35.62428,-0.97549 56.26114,10.53821 z"
         style="fill:#ffffff;stroke:#808080;stroke-width:3.58498526;stroke-linecap:butt;stroke-linejoin:miter;stroke-miterlimit:4;stroke-opacity:1;stroke-dasharray:none;display:inline" />
      <path
         transform="matrix(0.67679817,0,0,0.67683394,807.3063,23.999959)"
         d="m -1504.1171,-271.94781 a 39.39595,39.39595 0 0 1 -39.396,39.39595 39.39595,39.39595 0 0 1 -39.3959,-39.39595 39.39595,39.39595 0 0 1 39.3959,-39.39596 39.39595,39.39595 0 0 1 39.396,39.39596 z"
         sodipodi:ry="39.39595"
         sodipodi:rx="39.39595"
         sodipodi:cy="-271.94781"
         sodipodi:cx="-1543.5131"
         id="path3931"
         style="fill:none;stroke:#808080;stroke-width:3.97262883;stroke-linecap:butt;stroke-linejoin:miter;stroke-miterlimit:4;stroke-opacity:1;stroke-dasharray:none;stroke-dashoffset:0"
         sodipodi:type="arc" />
      <path
         transform="matrix(0.55532157,0,0,0.55535088,574.6833,-64.417215)"
         d="m -1504.1171,-271.94781 a 39.39595,39.39595 0 0 1 -39.396,39.39595 39.39595,39.39595 0 0 1 -39.3959,-39.39595 39.39595,39.39595 0 0 1 39.3959,-39.39596 39.39595,39.39595 0 0 1 39.396,39.39596 z"
         sodipodi:ry="39.39595"
         sodipodi:rx="39.39595"
         sodipodi:cy="-271.94781"
         sodipodi:cx="-1543.5131"
         id="path3933"
         style="fill:none;stroke:#808080;stroke-width:4.84164143;stroke-linecap:butt;stroke-linejoin:miter;stroke-miterlimit:4;stroke-opacity:1;stroke-dasharray:none;stroke-dashoffset:0"
         sodipodi:type="arc" />
      <path
         sodipodi:type="arc"
         style="fill:none;stroke:#808080;stroke-width:4.84164143;stroke-linecap:butt;stroke-linejoin:miter;stroke-miterlimit:4;stroke-opacity:1;stroke-dasharray:none;stroke-dashoffset:0"
         id="path3935"
         sodipodi:cx="-1543.5131"
         sodipodi:cy="-271.94781"
         sodipodi:rx="39.39595"
         sodipodi:ry="39.39595"
         d="m -1504.1171,-271.94781 a 39.39595,39.39595 0 0 1 -39.396,39.39595 39.39595,39.39595 0 0 1 -39.3959,-39.39595 39.39595,39.39595 0 0 1 39.3959,-39.39596 39.39595,39.39595 0 0 1 39.396,39.39596 z"
         transform="matrix(0.55532157,0,0,0.55535088,712.0594,-8.5121385)" />
      <path
         transform="matrix(0.38178364,0,0,0.3818038,399.80417,-108.87817)"
         d="m -1504.1171,-271.94781 a 39.39595,39.39595 0 0 1 -39.396,39.39595 39.39595,39.39595 0 0 1 -39.3959,-39.39595 39.39595,39.39595 0 0 1 39.3959,-39.39596 39.39595,39.39595 0 0 1 39.396,39.39596 z"
         sodipodi:ry="39.39595"
         sodipodi:rx="39.39595"
         sodipodi:cy="-271.94781"
         sodipodi:cx="-1543.5131"
         id="path3937"
         style="fill:none;stroke:#808080;stroke-width:7.04238653;stroke-linecap:butt;stroke-linejoin:miter;stroke-miterlimit:4;stroke-opacity:1;stroke-dasharray:none;stroke-dashoffset:0"
         sodipodi:type="arc" />
      <path
         sodipodi:type="arc"
         style="fill:none;stroke:#808080;stroke-width:9.38984871;stroke-linecap:butt;stroke-linejoin:miter;stroke-miterlimit:4;stroke-opacity:1;stroke-dasharray:none;stroke-dashoffset:0"
         id="path3939"
         sodipodi:cx="-1543.5131"
         sodipodi:cy="-271.94781"
         sodipodi:rx="39.39595"
         sodipodi:ry="39.39595"
         d="m -1504.1171,-271.94781 a 39.39595,39.39595 0 0 1 -39.396,39.39595 39.39595,39.39595 0 0 1 -39.3959,-39.39595 39.39595,39.39595 0 0 1 39.3959,-39.39596 39.39595,39.39595 0 0 1 39.396,39.39596 z"
         transform="matrix(0.28633771,0,0,0.28635285,320.50729,-136.98708)" />
      <path
         transform="matrix(0.28633771,0,0,0.28635285,345.84454,-161.64195)"
         d="m -1504.1171,-271.94781 a 39.39595,39.39595 0 0 1 -39.396,39.39595 39.39595,39.39595 0 0 1 -39.3959,-39.39595 39.39595,39.39595 0 0 1 39.3959,-39.39596 39.39595,39.39595 0 0 1 39.396,39.39596 z"
         sodipodi:ry="39.39595"
         sodipodi:rx="39.39595"
         sodipodi:cy="-271.94781"
         sodipodi:cx="-1543.5131"
         id="path3941"
         style="fill:none;stroke:#808080;stroke-width:9.38984871;stroke-linecap:butt;stroke-linejoin:miter;stroke-miterlimit:4;stroke-opacity:1;stroke-dasharray:none;stroke-dashoffset:0"
         sodipodi:type="arc" />
      <path
         sodipodi:type="arc"
         style="fill:none;stroke:#808080;stroke-width:9.38984871;stroke-linecap:butt;stroke-linejoin:miter;stroke-miterlimit:4;stroke-opacity:1;stroke-dasharray:none;stroke-dashoffset:0"
         id="path3943"
         sodipodi:cx="-1543.5131"
         sodipodi:cy="-271.94781"
         sodipodi:rx="39.39595"
         sodipodi:ry="39.39595"
         d="m -1504.1171,-271.94781 a 39.39595,39.39595 0 0 1 -39.396,39.39595 39.39595,39.39595 0 0 1 -39.3959,-39.39595 39.39595,39.39595 0 0 1 39.3959,-39.39596 39.39595,39.39595 0 0 1 39.396,39.39596 z"
         transform="matrix(0.28633771,0,0,0.28635285,370.71559,-136.60374)" />
      <path
         sodipodi:type="arc"
         style="fill:none;stroke:#808080;stroke-width:13.52361488;stroke-linecap:butt;stroke-linejoin:miter;stroke-miterlimit:4;stroke-opacity:1;stroke-dasharray:none;stroke-dashoffset:0"
         id="path3945"
         sodipodi:cx="-1543.5131"
         sodipodi:cy="-271.94781"
         sodipodi:rx="39.39595"
         sodipodi:ry="39.39595"
         d="m -1504.1171,-271.94781 a 39.39595,39.39595 0 0 1 -39.396,39.39595 39.39595,39.39595 0 0 1 -39.3959,-39.39595 39.39595,39.39595 0 0 1 39.3959,-39.39596 39.39595,39.39595 0 0 1 39.396,39.39596 z"
         transform="matrix(0.21692253,0,0,0.18222462,111.88062,-163.23623)" />
      <path
         sodipodi:nodetypes="cc"
         id="path3947"
         d="m -262.52901,-168.7635 c 12.37736,-0.55758 16.48302,-6.62988 15.34878,-16.19566"
         style="fill:none;stroke:#808080;stroke-width:2.68873906;stroke-linecap:butt;stroke-linejoin:miter;stroke-miterlimit:4;stroke-opacity:1;stroke-dasharray:none"
         inkscape:connector-curvature="0" />
      <path
         sodipodi:nodetypes="cc"
         id="path3949"
         d="m -212.51957,-150.87574 c -12.37735,0.55758 -17.47405,6.87161 -16.33981,16.43739"
         style="fill:none;stroke:#808080;stroke-width:2.68873906;stroke-linecap:butt;stroke-linejoin:miter;stroke-miterlimit:4;stroke-opacity:1;stroke-dasharray:none"
         inkscape:connector-curvature="0" />
      <path
         style="fill:none;stroke:#808080;stroke-width:2.68873906;stroke-linecap:butt;stroke-linejoin:miter;stroke-miterlimit:4;stroke-opacity:1;stroke-dasharray:none"
         d="m -262.28731,-150.87574 c 12.37735,0.55758 14.79108,4.93781 14.9862,15.22876"
         id="path3951"
         sodipodi:nodetypes="cc"
         inkscape:connector-curvature="0" />
      <path
         transform="matrix(0.21692253,0,0,0.18222462,177.88062,-163.23623)"
         d="m -1504.1171,-271.94781 a 39.39595,39.39595 0 0 1 -39.396,39.39595 39.39595,39.39595 0 0 1 -39.3959,-39.39595 39.39595,39.39595 0 0 1 39.3959,-39.39596 39.39595,39.39595 0 0 1 39.396,39.39596 z"
         sodipodi:ry="39.39595"
         sodipodi:rx="39.39595"
         sodipodi:cy="-271.94781"
         sodipodi:cx="-1543.5131"
         id="path3953"
         style="fill:none;stroke:#808080;stroke-width:13.52361488;stroke-linecap:butt;stroke-linejoin:miter;stroke-miterlimit:4;stroke-opacity:1;stroke-dasharray:none;stroke-dashoffset:0"
         sodipodi:type="arc" />
      <path
         style="fill:none;stroke:#808080;stroke-width:2.68873906;stroke-linecap:butt;stroke-linejoin:miter;stroke-miterlimit:4;stroke-opacity:1;stroke-dasharray:none"
         d="m -212.03614,-168.7635 c -12.37735,-0.55758 -17.47405,-6.87161 -16.33979,-16.43739"
         id="path3955"
         sodipodi:nodetypes="cc"
         inkscape:connector-curvature="0" />
      <path
         transform="matrix(0.2775554,0.07037247,-0.07037619,0.27757008,314.6342,-7.6898269)"
         d="m -1504.1171,-271.94781 a 39.39595,39.39595 0 0 1 -39.396,39.39595 39.39595,39.39595 0 0 1 -39.3959,-39.39595 39.39595,39.39595 0 0 1 39.3959,-39.39596 39.39595,39.39595 0 0 1 39.396,39.39596 z"
         sodipodi:ry="39.39595"
         sodipodi:rx="39.39595"
         sodipodi:cy="-271.94781"
         sodipodi:cx="-1543.5131"
         id="path3957"
         style="fill:none;stroke:#808080;stroke-width:9.38984871;stroke-linecap:butt;stroke-linejoin:miter;stroke-miterlimit:4;stroke-opacity:1;stroke-dasharray:none;stroke-dashoffset:0"
         sodipodi:type="arc" />
    </g>
    <path
       sodipodi:nodetypes="ssssssssscs"
       id="path4370"
       d="m 506.08834,127.18466 c -11.96884,12.53946 -80.08411,199.30001 -21.19373,211.94871 23.44022,5.03459 53.06084,-46.99092 88.19344,-62.9009 20.67767,-9.364 86.4699,-13.49673 121.00941,2.73482 30.66479,14.41064 65.77349,67.15733 83.40766,58.79867 56.14238,-26.61169 -4.70814,-186.95508 -22.56106,-208.53018 -9.56797,-11.5628 -46.2639,-17.19087 -56.06089,-12.82395 -11.53744,5.14272 -23.99764,15.36853 -36.51773,17.0435 -16.82432,2.25078 -38.3641,2.53629 -58.51238,1.16714 -11.58272,-0.78708 -41.02013,-17.52694 -41.02013,-17.52694 -5.61722,-4.2101 -45.09669,-2.1141 -56.74459,10.08913 z"
       style="display:inline;fill:#ffffff;fill-opacity:1;stroke:none;stroke-width:3.58498526;stroke-linecap:butt;stroke-linejoin:miter;stroke-miterlimit:4;stroke-dasharray:none;stroke-opacity:1"
       inkscape:connector-curvature="0" />
    <path
       inkscape:connector-curvature="0"
       style="display:inline;fill:#ffffff;stroke:none;stroke-width:3.58498526;stroke-linecap:butt;stroke-linejoin:miter;stroke-miterlimit:4;stroke-dasharray:none;stroke-opacity:1"
       d="m 508.38106,123.092 c 0.71098,-4.38175 17.01741,-15.45739 27.7888,-18.44315 6.42437,-1.7808 12.83588,-1.56974 23.24477,-0.35903 2.34463,2.95307 3.92102,11.33992 4.9859,12.37331 -10.09796,-4.79474 -35.38261,-5.08484 -56.01947,6.42887 z"
       id="path4372"
       sodipodi:nodetypes="csccc" />
    <path
       inkscape:connector-curvature="0"
       sodipodi:nodetypes="csccc"
       id="path4374"
       d="m 753.42058,125.75098 c 2.18965,-4.38175 -17.20684,-19.76222 -28.03047,-22.55249 -6.90781,-1.7808 -14.52788,-1.81146 -23.24477,-0.35903 -2.34463,2.95306 -3.92103,11.33992 -4.9859,12.37331 10.09796,-4.79474 35.62428,-0.97549 56.26114,10.53821 z"
       style="display:inline;fill:#ffffff;stroke:none;stroke-width:3.58498526;stroke-linecap:butt;stroke-linejoin:miter;stroke-miterlimit:4;stroke-dasharray:none;stroke-opacity:1" />
    <ellipse
       cy="219.93645"
       cx="582.65948"
       id="path4376"
       style="fill:none;stroke:#000000;stroke-width:2.68873906;stroke-linecap:butt;stroke-linejoin:miter;stroke-miterlimit:4;stroke-dasharray:none;stroke-dashoffset:0;stroke-opacity:1"
       rx="26.663107"
       ry="26.664516" />
    <ellipse
       cy="164.55632"
       cx="537.53723"
       id="path4378"
       style="fill:none;stroke:#000000;stroke-width:2.68873882;stroke-linecap:butt;stroke-linejoin:miter;stroke-miterlimit:4;stroke-dasharray:none;stroke-dashoffset:0;stroke-opacity:1"
       rx="21.87742"
       ry="21.878576" />
    <ellipse
       cy="220.4614"
       cx="674.91333"
       style="fill:none;stroke:#000000;stroke-width:2.68873882;stroke-linecap:butt;stroke-linejoin:miter;stroke-miterlimit:4;stroke-dasharray:none;stroke-dashoffset:0;stroke-opacity:1"
       id="path4380"
       rx="21.87742"
       ry="21.878576" />
    <ellipse
       cy="167.29112"
       cx="630.51617"
       id="path4382"
       style="fill:none;stroke:#000000;stroke-width:2.68873906;stroke-linecap:butt;stroke-linejoin:miter;stroke-miterlimit:4;stroke-dasharray:none;stroke-dashoffset:0;stroke-opacity:1"
       rx="15.04073"
       ry="15.041524" />
    <ellipse
       cy="165.13989"
       cx="698.54132"
       style="fill:none;stroke:#000000;stroke-width:2.68873882;stroke-linecap:butt;stroke-linejoin:miter;stroke-miterlimit:4;stroke-dasharray:none;stroke-dashoffset:0;stroke-opacity:1"
       id="path4384"
       rx="11.280546"
       ry="11.281142" />
    <ellipse
       cy="140.48502"
       cx="723.87848"
       id="path4386"
       style="fill:none;stroke:#000000;stroke-width:2.68873882;stroke-linecap:butt;stroke-linejoin:miter;stroke-miterlimit:4;stroke-dasharray:none;stroke-dashoffset:0;stroke-opacity:1"
       rx="11.280546"
       ry="11.281142" />
    <ellipse
       cy="165.52322"
       cx="748.74963"
       style="fill:none;stroke:#000000;stroke-width:2.68873882;stroke-linecap:butt;stroke-linejoin:miter;stroke-miterlimit:4;stroke-dasharray:none;stroke-dashoffset:0;stroke-opacity:1"
       id="path4388"
       rx="11.280546"
       ry="11.281142" />
    <ellipse
       cy="167.20818"
       cx="597.05786"
       style="fill:none;stroke:#000000;stroke-width:2.68873906;stroke-linecap:butt;stroke-linejoin:miter;stroke-miterlimit:4;stroke-dasharray:none;stroke-dashoffset:0;stroke-opacity:1"
       id="path4390"
       rx="8.5458689"
       ry="7.1789122" />
    <path
       sodipodi:nodetypes="cc"
       id="path4392"
       d="m 557.47099,211.2365 c 12.37736,-0.55758 16.48302,-6.62988 15.34878,-16.19566"
       style="fill:none;stroke:#000000;stroke-width:2.68873906;stroke-linecap:butt;stroke-linejoin:miter;stroke-miterlimit:4;stroke-dasharray:none;stroke-opacity:1"
       inkscape:connector-curvature="0" />
    <path
       sodipodi:nodetypes="cc"
       id="path4394"
       d="m 607.48043,229.12426 c -12.37735,0.55758 -17.47405,6.87161 -16.33981,16.43739"
       style="fill:none;stroke:#000000;stroke-width:2.68873906;stroke-linecap:butt;stroke-linejoin:miter;stroke-miterlimit:4;stroke-dasharray:none;stroke-opacity:1"
       inkscape:connector-curvature="0" />
    <path
       style="fill:none;stroke:#000000;stroke-width:2.68873906;stroke-linecap:butt;stroke-linejoin:miter;stroke-miterlimit:4;stroke-dasharray:none;stroke-opacity:1"
       d="m 557.71269,229.12426 c 12.37735,0.55758 14.79108,4.93781 14.9862,15.22876"
       id="path4396"
       sodipodi:nodetypes="cc"
       inkscape:connector-curvature="0" />
    <ellipse
       cy="167.20818"
       cx="663.05786"
       id="path4398"
       style="fill:none;stroke:#000000;stroke-width:2.68873906;stroke-linecap:butt;stroke-linejoin:miter;stroke-miterlimit:4;stroke-dasharray:none;stroke-dashoffset:0;stroke-opacity:1"
       rx="8.5458689"
       ry="7.1789122" />
    <path
       style="fill:none;stroke:#000000;stroke-width:2.68873906;stroke-linecap:butt;stroke-linejoin:miter;stroke-miterlimit:4;stroke-dasharray:none;stroke-opacity:1"
       d="m 607.96386,211.2365 c -12.37735,-0.55758 -17.47405,-6.87161 -16.33979,-16.43739"
       id="path4400"
       sodipodi:nodetypes="cc"
       inkscape:connector-curvature="0" />
    <ellipse
       cy="4.1618719"
       cx="749.36932"
       transform="matrix(0.96932884,0.24576738,-0.24576738,0.96932884,0,0)"
       id="path4402"
       style="fill:none;stroke:#000000;stroke-width:2.68873882;stroke-linecap:butt;stroke-linejoin:miter;stroke-miterlimit:4;stroke-dasharray:none;stroke-dashoffset:0;stroke-opacity:1"
       rx="11.280546"
       ry="11.281143" />
  </g>
  <g
     inkscape:groupmode="layer"
     id="layer3"
     inkscape:label="Title"
     style="display:inline" />
  <g
     inkscape:groupmode="layer"
     id="layer2"
     inkscape:label="Text"
     style="display:inline">
    <g
       id="g3487"
       style="fill:#ffffff;fill-opacity:1;stroke:#ffffff;stroke-opacity:1;filter:url(#filter3512)"
       transform="matrix(0.90008469,0,0,0.90008492,-24.086597,12.263621)" />
    <g
       id="g2704"
       transform="matrix(-0.90008483,0,0,0.90008483,643.58421,14.321156)"
       style="fill:#ffffff;fill-opacity:1;stroke:#ffffff;stroke-opacity:1;filter:url(#filter3525)" />
  </g>
</svg>
